<mxfile host="app.diagrams.net" modified="2020-03-31T19:09:18.688Z" agent="5.0 (X11)" etag="5V4D774NytATanP4QF4K" version="12.9.6" type="gitlab">
  <diagram id="PEVAcncwJF9EsP-s9NIc" name="Page-1">
    <mxGraphModel dx="868" dy="482" grid="1" gridSize="10" guides="1" tooltips="1" connect="1" arrows="1" fold="1" page="1" pageScale="1" pageWidth="3300" pageHeight="4681" math="0" shadow="0">
      <root>
        <mxCell id="0" />
        <mxCell id="1" parent="0" />
        <mxCell id="5pIf5p7ObArURIcpXoX1-9" value="Ostern" style="ellipse;whiteSpace=wrap;html=1;fillColor=#dae8fc;strokeColor=#6c8ebf;" vertex="1" parent="1">
          <mxGeometry x="1654" y="1080" width="120" height="80" as="geometry" />
        </mxCell>
        <mxCell id="5pIf5p7ObArURIcpXoX1-10" value="Auferstehung" style="ellipse;whiteSpace=wrap;html=1;aspect=fixed;fillColor=#d5e8d4;strokeColor=#82b366;" vertex="1" parent="1">
          <mxGeometry x="1790" y="1190" width="80" height="80" as="geometry" />
        </mxCell>
        <mxCell id="5pIf5p7ObArURIcpXoX1-11" value="Kreuzestod&lt;br&gt;Jesu" style="ellipse;whiteSpace=wrap;html=1;aspect=fixed;fillColor=#f8cecc;strokeColor=#b85450;" vertex="1" parent="1">
          <mxGeometry x="1550" y="1190" width="80" height="80" as="geometry" />
        </mxCell>
        <mxCell id="5pIf5p7ObArURIcpXoX1-12" value="ist Feier der" style="endArrow=classic;html=1;exitX=1;exitY=1;exitDx=0;exitDy=0;" edge="1" parent="1" source="5pIf5p7ObArURIcpXoX1-9" target="5pIf5p7ObArURIcpXoX1-10">
          <mxGeometry width="50" height="50" relative="1" as="geometry">
            <mxPoint x="1690" y="1380" as="sourcePoint" />
            <mxPoint x="1740" y="1330" as="targetPoint" />
          </mxGeometry>
        </mxCell>
        <mxCell id="5pIf5p7ObArURIcpXoX1-13" value="Mk 16,1-20" style="rounded=0;whiteSpace=wrap;html=1;fillColor=#fff2cc;strokeColor=#d6b656;" vertex="1" parent="1">
          <mxGeometry x="1950" y="1215" width="100" height="30" as="geometry" />
        </mxCell>
        <mxCell id="5pIf5p7ObArURIcpXoX1-14" value="&lt;div&gt;erzählt von&lt;/div&gt;" style="endArrow=classic;html=1;exitX=0;exitY=0.5;exitDx=0;exitDy=0;entryX=1;entryY=0.5;entryDx=0;entryDy=0;" edge="1" parent="1" source="5pIf5p7ObArURIcpXoX1-13" target="5pIf5p7ObArURIcpXoX1-10">
          <mxGeometry width="50" height="50" relative="1" as="geometry">
            <mxPoint x="1960" y="1190" as="sourcePoint" />
            <mxPoint x="2010" y="1140" as="targetPoint" />
            <Array as="points" />
          </mxGeometry>
        </mxCell>
        <mxCell id="5pIf5p7ObArURIcpXoX1-15" value="Mk 15,33-47" style="rounded=0;whiteSpace=wrap;html=1;fillColor=#fff2cc;strokeColor=#d6b656;" vertex="1" parent="1">
          <mxGeometry x="1360" y="1215" width="100" height="30" as="geometry" />
        </mxCell>
        <mxCell id="5pIf5p7ObArURIcpXoX1-16" value="&lt;div&gt;erzählt von&lt;/div&gt;" style="endArrow=classic;html=1;exitX=1;exitY=0.5;exitDx=0;exitDy=0;" edge="1" parent="1">
          <mxGeometry x="-0.3258" width="50" height="50" relative="1" as="geometry">
            <mxPoint x="1460" y="1230" as="sourcePoint" />
            <mxPoint x="1549" y="1230" as="targetPoint" />
            <mxPoint as="offset" />
          </mxGeometry>
        </mxCell>
      </root>
    </mxGraphModel>
  </diagram>
</mxfile>
